{
  "$schema": "https://json-schema.org/draft-06/schema#",
  "type": "object",
  "required": [
      "name",
      "description",
      "guid"
  ],
  "properties": {
      "guid": {
        "type": "string"
      },
      "name": {
          "type": "string"
      },
      "description": {
          "type": "string"
      }
  },
  "additionalProperties": false
}
