{
  "$schema": "https://json-schema.org/draft-06/schema#",
  "type": "object",
  "required": [
      "day",
      "time",
      "guid",
      "duration"
  ],
  "properties": {
      "guid": {
        "type": "string"
      },
      "day": {
          "type": "string"
      },
      "time": {
          "type": "string"
      },
      "duration": {
          "type": "number"
      }
  },
  "additionalProperties": false
}
